0:00:01.006469;44;143;117;173;19,0;11,0 ; 18,0 ; 11,5;-9,0;-5,0;10,0;0,0
0:00:01.067349;62;118;135;153;20,0;13,0 ; 17,0 ; 11,5;6,0;1,0;8,0;0,0
0:00:01.125383;67;114;142;146;20,0;12,0 ; 17,0 ; 11,0;8,0;2,0;10,0;0,0
0:00:02.012519;388;377;465;386;20,5;9,5 ; 19,5 ; 9,0;-2,5;-5,375;10,5;-6,375
0:00:03.095662;311;314;383;304;19,5;9,5 ; 18,0 ; 10,0;-3,5;-2,0;6,5;-3,0
0:00:03.163010;299;297;370;288;20,0;9,5 ; 18,5 ; 10,0;-5,0;-1,75;6,5;-3,75
0:00:03.227722;283;282;356;274;20,0;9,5 ; 18,5 ; 9,5;-3,0;-1,5714285714285712;7,5;-1,5714285714285712
0:00:03.287996;259;274;332;265;20,0;9,5 ; 18,5 ; 9,5;-4,0;-1,4375;9,5;-1,4375
0:00:03.352841;239;251;310;245;19,5;9,5 ; 18,5 ; 9,0;-4,5;-1,333333333333334;8,5;-2,333333333333334
0:00:03.410457;225;237;297;229;20,0;9,5 ; 19,0 ; 9,0;-4,0;-1,25;9,5;-1,25
0:00:03.469084;222;235;294;228;19,5;9,5 ; 19,0 ; 9,5;-3,5;-1,1818181818181817;9,5;-1,1818181818181817
0:00:03.523695;221;227;294;221;20,5;10,0 ; 18,5 ; 9,5;-4,5;-0,16666666666666607;8,0;-1,166666666666666
0:00:03.578814;220;224;292;217;20,0;10,0 ; 19,0 ; 10,0;-3,0;-0,1538461538461533;9,0;-0,1538461538461533
0:00:03.628603;201;221;275;213;20,5;9,5 ; 18,5 ; 9,5;-0,5;-1,1071428571428577;8,5;-1,1071428571428577
0:00:03.678632;191;235;265;228;20,5;9,0 ; 18,5 ; 9,0;-0,5;-1,0333333333333332;9,0;-1,0333333333333332
0:00:03.727837;188;263;259;257;20,0;8,5 ; 19,0 ; 8,5;0,0;-1,9375;10,5;-1,9375
0:00:03.777702;185;275;258;269;20,0;8,0 ; 18,5 ; 8,0;0,0;-1,8235294117647065;10,0;-1,8235294117647065
0:00:03.826324;190;295;263;287;20,0;8,0 ; 18,0 ; 8,0;0,0;-2,7222222222222214;10,0;-1,7222222222222214
0:00:03.876677;187;302;260;294;20,0;7,5 ; 18,0 ; 7,5;0,0;-2,6052631578947363;10,5;-2,6052631578947363
0:00:03.929791;184;300;257;293;20,0;8,0 ; 18,0 ; 7,5;0,0;-2,5250000000000004;10,0;-2,5250000000000004
0:00:03.979252;188;317;261;310;20,5;8,5 ; 18,0 ; 9,0;-0,5;-1,4761904761904763;8,5;0,5238095238095237
0:00:05.049723;156;399;223;404;19,0;8,0 ; 17,0 ; 7,5;0,0;-2,4090909090909083;9,0;-2,4090909090909083
0:00:05.885189;232;413;298;409;19,0;9,0 ; 18,5 ; 9,5;0,0;-0,3913043478260878;9,0;-0,3913043478260878
0:00:05.982885;211;399;277;395;19,0;9,5 ; 17,5 ; 10,0;0,0;-0,3958333333333339;7,5;0,6041666666666661
0:00:06.042349;207;394;272;390;18,5;9,5 ; 17,0 ; 10,0;-1,5;-0,40000000000000036;7,5;0,5999999999999996
0:00:06.094462;199;387;264;382;18,5;9,5 ; 17,0 ; 10,0;-1,5;-0,4038461538461533;6,5;0,5961538461538467
0:00:06.151154;193;382;258;377;18,5;9,5 ; 17,0 ; 9,5;-1,5;-0,40740740740740655;7,5;-0,40740740740740655
0:00:06.207221;185;377;250;372;18,5;9,0 ; 17,0 ; 9,5;-2,5;-0,39285714285714235;8,0;-0,39285714285714235
0:00:06.262543;184;377;249;372;18,5;9,0 ; 17,0 ; 9,5;-1,5;-0,3793103448275854;7,0;-0,3793103448275854
0:00:06.314103;186;378;250;372;18,5;9,0 ; 17,5 ; 10,0;-2,5;-0,36666666666666714;8,0;0,6333333333333329
0:00:06.373249;197;385;263;379;19,0;9,5 ; 17,5 ; 10,0;-2,0;-0,370967741935484;7,5;0,629032258064516
0:00:06.424838;204;385;268;379;18,5;10,0 ; 17,0 ; 10,0;-0,5;0,609375;7,0;0,609375
0:00:06.475591;206;379;270;373;18,5;9,0 ; 17,0 ; 9,5;-3,5;-0,3787878787878789;7,0;-0,3787878787878789
0:00:06.529263;207;374;270;368;18,5;9,0 ; 17,0 ; 9,0;-0,5;-0,367647058823529;8,0;-0,367647058823529
0:00:06.583233;208;376;271;369;18,0;8,0 ; 16,5 ; 8,5;0,0;-2,328571428571429;8,0;-1,3285714285714292
0:00:06.634380;207;374;271;368;18,5;8,0 ; 17,0 ; 8,0;-0,5;-2,291666666666666;9,0;-1,291666666666666
0:00:06.686512;206;374;270;369;18,5;8,0 ; 17,0 ; 7,5;-0,5;-2,256756756756756;9,0;-2,256756756756756
0:00:06.740819;203;374;267;368;18,5;7,5 ; 16,5 ; 7,5;-0,5;-2,2105263157894743;8,5;-2,2105263157894743
0:00:06.791459;203;375;267;370;18,5;7,5 ; 16,5 ; 7,5;-0,5;-2,166666666666666;8,5;-2,166666666666666
0:00:06.841404;202;375;266;369;18,0;7,5 ; 17,0 ; 8,0;0,0;-2,125;9,5;-2,125
0:00:06.890077;200;373;262;367;18,0;7,5 ; 16,5 ; 7,5;0,0;-2,085365853658537;8,5;-2,085365853658537
0:00:06.942309;199;372;261;366;18,0;7,5 ; 16,5 ; 7,5;0,0;-2,0476190476190474;8,5;-2,0476190476190474
0:00:06.992766;199;370;260;364;17,5;7,5 ; 16,5 ; 7,5;-0,5;-2,0116279069767433;8,5;-2,0116279069767433
0:00:07.044136;198;368;260;362;17,5;7,5 ; 16,0 ; 7,5;-0,5;-1,9772727272727266;8,5;-1,9772727272727266
0:00:07.096202;197;368;260;362;18,0;7,0 ; 16,5 ; 7,0;0,0;-1,9333333333333336;9,0;-1,9333333333333336
0:00:07.147651;198;368;259;362;17,5;7,0 ; 16,5 ; 7,0;-0,5;-2,891304347826088;9,0;-1,8913043478260878
0:00:07.202541;197;367;260;362;18,0;7,0 ; 16,0 ; 7,0;0,0;-2,8510638297872344;9,0;-2,8510638297872344
0:00:07.253951;198;366;260;360;18,0;7,0 ; 16,0 ; 7,0;0,0;-2,8125;9,0;-1,8125
0:00:07.303465;200;365;262;360;17,5;7,5 ; 16,0 ; 7,0;-0,5;-1,7857142857142865;8,5;-1,7857142857142865
0:00:07.355323;199;363;261;358;18,0;7,0 ; 16,0 ; 7,0;0,0;-2,75;9,0;-2,75
0:00:07.406450;199;362;260;357;17,5;7,0 ; 16,0 ; 7,0;-0,5;-2,715686274509803;9,0;-2,715686274509803
0:00:07.457590;200;362;262;357;18,0;7,5 ; 16,5 ; 7,5;0,0;-1,6923076923076916;8,5;-1,6923076923076916
0:00:07.507928;201;360;262;356;18,0;8,0 ; 16,5 ; 7,5;0,0;-1,6792452830188687;8,0;-1,6792452830188687
0:00:07.560564;200;359;262;355;18,0;7,5 ; 16,0 ; 7,0;0,0;-1,6574074074074066;8,5;-2,6574074074074066
0:00:07.614776;201;360;262;355;18,0;7,5 ; 16,0 ; 7,5;0,0;-1,6363636363636367;8,5;-1,6363636363636367
0:00:07.666175;202;360;262;356;17,5;7,5 ; 16,5 ; 7,0;-0,5;-1,6160714285714288;8,5;-2,616071428571429
0:00:07.716521;201;361;262;356;18,0;7,5 ; 16,5 ; 7,5;0,0;-1,5964912280701746;8,5;-1,5964912280701746
0:00:07.768128;202;365;264;360;18,0;7,0 ; 16,0 ; 7,0;0,0;-2,568965517241379;8,0;-2,568965517241379
0:00:07.817527;202;363;263;358;17,5;7,0 ; 16,0 ; 7,0;-0,5;-1,5423728813559325;9,0;-1,5423728813559325
0:00:07.867516;203;364;264;359;18,0;7,5 ; 16,0 ; 7,0;0,0;-1,5250000000000004;8,5;-1,5250000000000004
0:00:07.917395;203;364;266;359;18,0;7,0 ; 16,0 ; 7,0;0,0;-2,5;9,0;-2,5
0:00:07.968215;205;363;265;359;17,5;7,5 ; 16,0 ; 7,0;-0,5;-1,483870967741936;8,5;-2,483870967741936
0:00:08.018704;205;364;266;359;17,5;7,0 ; 16,0 ; 6,5;-0,5;-2,4603174603174605;9,0;-2,4603174603174605
0:00:08.069376;203;362;265;357;18,5;7,5 ; 16,5 ; 7,5;-0,5;-1,4453125;8,5;-1,4453125
0:00:08.120026;205;361;265;356;18,0;7,5 ; 16,5 ; 7,5;0,0;-1,430769230769231;8,5;-1,430769230769231
0:00:08.170995;205;361;265;356;18,0;7,0 ; 16,5 ; 7,5;0,0;-2,4090909090909083;9,0;-1,4090909090909083
0:00:08.220239;205;360;265;355;18,0;7,0 ; 16,5 ; 7,5;0,0;-1,388059701492537;9,0;-1,388059701492537
0:00:08.272585;204;359;265;354;18,0;7,5 ; 16,0 ; 7,0;0,0;-1,375;8,5;-1,375
0:00:08.323853;204;357;263;353;17,5;7,5 ; 16,0 ; 7,0;-0,5;-1,3623188405797109;8,5;-1,3623188405797109
0:00:08.375094;203;356;262;350;17,5;7,0 ; 16,0 ; 7,0;-0,5;-2,3428571428571434;9,0;-1,3428571428571434
0:00:08.424994;201;354;260;349;17,0;7,0 ; 16,0 ; 7,0;0,0;-2,32394366197183;9,0;-2,32394366197183
0:00:08.476857;200;352;259;347;17,5;7,0 ; 15,5 ; 7,0;-0,5;-1,3055555555555554;8,0;-2,3055555555555554
0:00:08.528002;198;347;256;342;17,0;7,5 ; 15,5 ; 7,5;0,0;-1,294520547945206;7,5;-1,294520547945206
0:00:08.580972;197;346;255;341;17,5;7,5 ; 15,5 ; 7,5;-0,5;-1,2837837837837842;7,5;-1,2837837837837842
0:00:08.635846;195;344;252;338;17,0;7,5 ; 15,5 ; 7,5;0,0;-1,2733333333333334;7,5;-1,2733333333333334
0:00:08.689632;193;343;250;337;17,0;7,0 ; 15,5 ; 7,0;-1,0;-2,2565789473684212;8,0;-1,2565789473684212
0:00:08.741122;193;341;248;336;16,5;7,0 ; 15,0 ; 7,0;-0,5;-2,2402597402597397;8,0;-2,2402597402597397
0:00:08.792910;189;339;244;333;17,0;7,0 ; 15,5 ; 7,0;0,0;-2,2243589743589745;8,0;-2,2243589743589745
0:00:08.845985;188;338;244;333;16,5;7,0 ; 15,0 ; 6,5;-0,5;-2,208860759493671;8,0;-2,208860759493671
0:00:08.896706;187;335;240;330;16,5;7,5 ; 15,0 ; 7,5;-0,5;-1,1999999999999993;7,5;-1,1999999999999993
0:00:08.949343;186;335;240;330;16,0;7,0 ; 14,5 ; 7,0;-1,0;-2,185185185185185;7,0;-2,185185185185185
0:00:08.999332;184;334;237;329;16,5;7,5 ; 14,5 ; 7,0;-0,5;-1,1768292682926838;6,5;-1,1768292682926838
0:00:09.051434;183;335;234;330;16,0;7,0 ; 14,5 ; 7,0;0,0;-2,162650602409638;7,0;-1,162650602409638
0:00:09.102190;181;335;231;330;16,0;7,0 ; 14,5 ; 7,0;0,0;-2,1488095238095237;7,0;-1,1488095238095237
0:00:09.152505;180;335;230;330;15,5;7,0 ; 14,5 ; 7,0;-0,5;-2,1352941176470583;7,0;-1,1352941176470583
0:00:09.204379;178;334;228;329;15,5;7,0 ; 14,5 ; 7,0;-0,5;-2,1220930232558146;7,0;-1,1220930232558146
0:00:09.262990;174;332;225;328;16,0;7,0 ; 14,5 ; 7,0;0,0;-2,10919540229885;7,0;-2,10919540229885
0:00:09.316852;173;332;223;328;15,5;7,0 ; 15,0 ; 7,0;-0,5;-1,0965909090909083;8,0;-1,0965909090909083
0:00:09.370252;170;333;221;329;16,0;7,0 ; 15,0 ; 7,0;0,0;-1,0842696629213489;8,0;-2,084269662921349
0:00:09.420603;169;332;220;328;16,0;7,0 ; 15,0 ; 7,5;0,0;-1,0722222222222229;8,0;-1,0722222222222229
0:00:09.469663;169;332;219;327;15,5;7,0 ; 14,5 ; 7,0;-0,5;-2,0604395604395602;7,0;-1,0604395604395602
0:00:09.518789;166;333;216;328;15,5;7,0 ; 14,5 ; 7,5;-0,5;-2,0489130434782616;7,0;-1,0489130434782616
0:00:09.571274;166;335;215;330;15,0;7,5 ; 14,5 ; 7,5;-1,0;-1,043010752688172;6,5;-1,043010752688172
0:00:09.623203;165;339;214;335;15,0;7,0 ; 14,0 ; 7,0;0,0;-1,0319148936170208;7,0;-1,0319148936170208
0:00:09.673217;165;340;213;336;15,0;7,5 ; 14,5 ; 7,5;-1,0;-1,026315789473685;6,5;-1,026315789473685
0:00:09.723914;164;340;212;336;15,0;7,5 ; 14,5 ; 7,5;-1,0;-1,020833333333334;6,5;-1,020833333333334
0:00:09.772923;164;341;212;336;15,0;7,0 ; 14,5 ; 7,5;-1,0;-1,0103092783505154;7,0;-1,0103092783505154
0:00:09.823386;162;341;210;337;15,0;7,5 ; 14,5 ; 7,0;0,0;-1,0051020408163271;6,5;-1,0051020408163271
0:00:09.874969;160;342;209;337;15,0;7,0 ; 14,5 ; 7,0;0,0;-1,9949494949494948;7,0;-1,9949494949494948
0:00:09.925769;157;342;205;337;15,5;7,0 ; 14,5 ; 7,0;-0,5;-1,9850000000000003;7,0;-1,9850000000000003
0:00:09.975113;157;343;206;338;15,0;6,5 ; 14,5 ; 6,5;-1,0;-1,9702970297029703;7,5;-1,9702970297029703
0:00:10.025886;156;344;205;339;15,0;6,5 ; 14,5 ; 6,5;0,0;-1,9558823529411766;7,5;-1,9558823529411766
0:00:10.076982;156;344;205;339;15,0;7,0 ; 14,5 ; 7,0;-1,0;-1,9466019417475726;7,0;-1,9466019417475726
0:00:10.130150;156;344;205;339;15,0;6,5 ; 14,5 ; 7,0;0,0;-1,9326923076923075;7,5;-1,9326923076923075
0:00:10.181455;156;343;206;339;15,5;7,0 ; 14,0 ; 6,5;-0,5;-0,9238095238095241;7,0;-1,923809523809524
0:00:10.231154;156;343;206;338;15,0;6,5 ; 14,0 ; 6,5;0,0;-1,9103773584905657;7,5;-1,9103773584905657
0:00:10.283071;157;342;205;337;15,0;7,0 ; 14,5 ; 7,0;0,0;-1,9018691588785046;7,0;-1,9018691588785046
0:00:10.334406;157;341;206;337;15,0;6,5 ; 14,0 ; 6,5;0,0;-1,8888888888888893;7,5;-1,8888888888888893
0:00:10.386406;159;341;207;336;15,5;7,5 ; 14,5 ; 7,5;-0,5;-0,8853211009174311;6,5;-0,8853211009174311
0:00:10.439502;160;341;209;335;15,0;7,0 ; 14,0 ; 7,5;0,0;-1,877272727272727;7,0;-0,877272727272727
0:00:10.491721;161;340;209;334;15,0;7,5 ; 14,5 ; 8,0;0,0;-0,8738738738738743;6,5;0,12612612612612573
0:00:10.544615;162;340;211;334;15,0;7,0 ; 14,0 ; 7,5;0,0;-0,8660714285714288;7,0;-0,8660714285714288
0:00:10.597320;163;337;212;332;15,0;7,0 ; 14,0 ; 7,0;0,0;-1,8584070796460175;7,0;-0,8584070796460175
0:00:10.650478;164;338;212;333;15,0;7,5 ; 14,0 ; 7,5;0,0;-0,8552631578947372;6,5;-0,8552631578947372
0:00:10.703444;166;340;214;334;15,0;7,0 ; 14,5 ; 7,0;0,0;-1,8478260869565215;7,0;-0,8478260869565215
0:00:10.754576;167;339;215;335;15,0;7,5 ; 14,0 ; 7,0;0,0;-0,8448275862068968;6,5;-1,8448275862068968
0:00:10.805230;167;340;216;335;15,5;7,0 ; 14,0 ; 7,5;-0,5;-0,8376068376068373;7,0;-0,8376068376068373
0:00:10.860398;168;340;216;335;15,0;7,0 ; 14,5 ; 7,5;0,0;-0,8305084745762707;7,0;-0,8305084745762707
0:00:10.912896;168;340;217;336;15,5;7,5 ; 14,0 ; 7,0;-0,5;-0,8277310924369745;6,5;-0,8277310924369745
0:00:10.965613;169;340;217;335;15,0;7,0 ; 14,0 ; 7,5;0,0;-0,8208333333333337;7,0;-0,8208333333333337
0:00:11.018727;168;340;217;336;15,0;7,5 ; 14,0 ; 7,0;0,0;-0,8181818181818183;6,5;-1,8181818181818183
0:00:11.069712;168;340;216;335;15,0;7,0 ; 14,0 ; 7,0;-1,0;-1,8114754098360653;7,0;-0,8114754098360653
0:00:11.119417;168;341;216;336;15,0;7,0 ; 14,0 ; 7,0;0,0;-0,8048780487804876;7,0;-0,8048780487804876
0:00:11.172997;168;342;217;337;15,0;7,0 ; 14,0 ; 7,0;-1,0;-1,798387096774194;7,0;-1,798387096774194
0:00:11.227160;168;342;217;337;15,5;7,0 ; 14,0 ; 7,0;-0,5;-1,7919999999999998;7,0;-0,7919999999999998
0:00:11.282027;169;341;218;336;15,0;7,0 ; 14,0 ; 7,5;0,0;-0,7857142857142856;7,0;-0,7857142857142856
0:00:11.333539;170;341;219;336;15,0;7,0 ; 14,0 ; 7,5;0,0;-0,7795275590551185;7,0;-0,7795275590551185
0:00:11.385428;170;341;219;337;15,0;6,5 ; 14,0 ; 6,5;0,0;-1,76953125;6,5;-1,76953125
0:00:11.434788;172;341;219;337;15,0;7,0 ; 14,0 ; 7,5;0,0;-0,7635658914728678;7,0;-0,7635658914728678
0:00:11.487842;172;343;219;339;15,0;7,0 ; 14,0 ; 7,0;-1,0;-1,7576923076923077;7,0;-1,7576923076923077
0:00:11.538615;172;344;220;340;15,0;7,0 ; 14,0 ; 6,5;-1,0;-1,7519083969465647;7,0;-1,7519083969465647
0:00:11.592750;172;343;221;338;15,5;7,0 ; 14,0 ; 7,5;-0,5;-1,746212121212121;7,0;-0,7462121212121211
0:00:11.641289;173;343;221;338;15,0;7,0 ; 14,0 ; 7,0;-1,0;-1,7406015037593985;7,0;-0,7406015037593985
0:00:11.696491;173;343;222;339;15,5;6,5 ; 14,0 ; 6,5;-0,5;-1,7313432835820892;7,5;-1,7313432835820892
0:00:11.747021;172;342;222;338;15,5;7,0 ; 14,0 ; 6,5;-0,5;-1,7259259259259263;7,0;-1,7259259259259263
0:00:11.799333;173;343;222;339;15,0;7,0 ; 14,0 ; 7,0;-1,0;-1,7205882352941178;6,0;-1,7205882352941178
0:00:11.852066;173;343;222;339;15,5;6,5 ; 14,5 ; 7,0;-0,5;-1,711678832116788;7,5;-1,711678832116788
0:00:11.908057;173;342;223;339;15,5;7,0 ; 14,5 ; 6,5;-0,5;-0,7065217391304346;7,0;-1,7065217391304346
0:00:11.959772;175;338;225;334;15,5;7,0 ; 14,0 ; 7,0;-0,5;-0,701438848920863;7,0;-0,701438848920863
0:00:12.009740;175;336;225;333;15,5;7,0 ; 14,5 ; 7,5;-0,5;-0,6964285714285712;7,0;-0,6964285714285712
0:00:12.061716;176;336;226;334;15,5;7,0 ; 14,0 ; 7,0;-0,5;-0,6914893617021276;7,0;-1,6914893617021276
0:00:12.113223;179;339;227;335;15,0;7,0 ; 14,5 ; 7,5;0,0;-0,686619718309859;7,0;-0,686619718309859
0:00:12.164284;179;341;228;337;15,5;7,5 ; 14,5 ; 7,5;-0,5;-0,685314685314685;6,5;-0,685314685314685
0:00:12.214817;181;341;230;337;15,0;7,0 ; 14,5 ; 7,5;0,0;-0,6805555555555554;7,0;-0,6805555555555554
0:00:12.266206;181;341;231;337;15,5;7,0 ; 14,5 ; 7,5;-0,5;-0,6758620689655173;7,0;-0,6758620689655173
0:00:12.316617;183;340;232;337;15,5;7,5 ; 14,5 ; 7,5;-0,5;-0,6746575342465757;6,5;-0,6746575342465757
0:00:12.366860;183;340;233;337;15,5;7,0 ; 14,5 ; 7,5;-0,5;-0,6700680272108848;7,0;-0,6700680272108848
0:00:12.419007;184;339;234;336;15,5;7,0 ; 14,0 ; 7,0;-0,5;-0,6655405405405403;7,0;-0,6655405405405403
0:00:12.470895;183;337;234;335;16,0;7,0 ; 14,5 ; 7,0;0,0;-0,6610738255033555;7,0;-0,6610738255033555
0:00:12.520516;184;337;233;336;15,5;7,5 ; 15,0 ; 7,5;-0,5;-0,6600000000000001;7,5;-0,6600000000000001
0:00:12.571926;184;337;233;335;16,0;7,5 ; 15,0 ; 8,0;0,0;-0,6589403973509933;7,5;0,3410596026490067
0:00:12.622014;183;338;232;336;16,0;7,0 ; 15,0 ; 8,0;0,0;-0,6546052631578947;8,0;0,3453947368421053
0:00:12.673763;183;339;232;338;15,5;7,0 ; 14,5 ; 7,0;-0,5;-1,6503267973856213;7,0;-1,6503267973856213
0:00:12.723592;183;338;232;336;15,5;7,0 ; 14,5 ; 7,0;-0,5;-1,646103896103896;7,0;-0,6461038961038961
0:00:12.775399;183;337;232;335;15,5;7,0 ; 14,5 ; 7,0;-0,5;-0,6419354838709674;7,0;-1,6419354838709674
0:00:12.824247;183;336;234;334;16,0;7,5 ; 14,5 ; 7,5;0,0;-0,6410256410256414;6,5;-0,6410256410256414
0:00:12.876627;185;337;235;336;15,5;7,0 ; 14,0 ; 7,0;-0,5;-0,6369426751592355;7,0;-0,6369426751592355
0:00:12.926627;188;342;238;340;16,0;6,5 ; 14,5 ; 6,5;0,0;-1,6297468354430382;7,5;-1,6297468354430382
0:00:12.978359;192;344;241;342;15,5;7,5 ; 14,5 ; 7,0;-0,5;-0,6289308176100628;6,5;-0,6289308176100628
0:00:13.028276;197;349;246;347;15,5;7,0 ; 14,0 ; 6,5;-0,5;-1,625;7,0;-1,625
0:00:13.079509;207;354;256;353;15,0;7,5 ; 14,0 ; 7,0;0,0;-0,6242236024844718;6,5;-0,6242236024844718
0:00:13.130940;212;353;261;353;15,5;8,0 ; 14,5 ; 8,0;-0,5;-0,6265432098765435;6,0;-0,6265432098765435
0:00:13.182254;216;359;265;358;15,5;7,0 ; 14,0 ; 6,5;-0,5;-0,6226993865030677;7,0;-1,6226993865030677
0:00:13.234261;216;359;264;358;15,0;7,0 ; 14,0 ; 6,5;0,0;-0,6189024390243905;7,0;-1,6189024390243905
0:00:13.283665;213;360;262;358;15,5;7,0 ; 14,0 ; 7,0;-0,5;-0,6151515151515152;7,0;-0,6151515151515152
0:00:13.336341;211;363;259;360;15,0;7,0 ; 14,5 ; 7,0;-1,0;-0,6114457831325302;7,0;-0,6114457831325302
0:00:13.387441;210;369;257;366;14,5;7,0 ; 14,0 ; 7,0;-0,5;-0,6077844311377243;7,0;-0,6077844311377243
0:00:13.440940;212;373;260;369;15,0;7,0 ; 14,0 ; 7,0;0,0;-0,604166666666667;7,0;-1,604166666666667
0:00:13.499714;218;381;264;377;14,5;7,0 ; 14,0 ; 7,0;-0,5;-0,6005917159763312;6,0;-1,6005917159763312
0:00:13.554726;220;386;266;381;14,5;7,0 ; 13,5 ; 7,0;-0,5;-1,5970588235294114;6,0;-0,5970588235294114
0:00:13.606673;217;391;263;386;14,5;7,0 ; 14,0 ; 7,0;-0,5;-1,5935672514619883;7,0;-0,5935672514619883
0:00:13.660331;214;393;262;389;15,0;7,5 ; 13,5 ; 7,0;0,0;-0,5930232558139537;5,5;-1,5930232558139537
0:00:13.711835;207;398;254;394;15,0;7,0 ; 13,5 ; 7,0;-1,0;-1,589595375722543;6,0;-1,589595375722543
0:00:13.765070;199;400;248;396;15,0;7,0 ; 13,5 ; 6,5;-1,0;-1,5862068965517242;6,0;-1,5862068965517242
0:00:13.817238;195;399;242;394;14,5;7,5 ; 14,0 ; 8,0;-0,5;-0,5857142857142854;6,5;0,4142857142857146
0:00:13.868549;183;399;231;394;15,0;8,0 ; 14,0 ; 8,0;-1,0;-0,5880681818181817;6,0;0,41193181818181834
0:00:13.918108;171;393;218;389;14,5;8,0 ; 14,0 ; 8,0;-0,5;0,40960451977401124;6,0;0,40960451977401124
0:00:13.968330;164;385;211;381;15,0;8,0 ; 14,0 ; 8,0;-1,0;0,4073033707865168;6,0;0,4073033707865168
0:00:14.017628;140;358;186;356;14,5;8,0 ; 14,0 ; 8,0;-0,5;0,4050279329608939;5,0;0,4050279329608939
0:00:14.065877;125;342;171;339;14,5;8,5 ; 14,0 ; 8,0;-0,5;0,40000000000000036;4,5;0,40000000000000036
0:00:14.115345;121;321;167;317;14,0;8,0 ; 13,5 ; 8,0;0,0;0,39779005524861866;5,0;0,39779005524861866
0:00:14.168889;136;320;182;317;14,5;8,0 ; 14,0 ; 7,5;-0,5;0,395604395604396;6,0;-0,604395604395604
0:00:14.268425;196;296;239;294;14,0;7,5 ; 14,0 ; 7,5;0,0;-0,6038251366120218;5,5;-0,6038251366120218
0:00:14.318861;204;306;246;303;13,5;7,5 ; 14,0 ; 7,5;-0,5;-0,6032608695652177;6,5;-0,6032608695652177
0:00:14.557676;372;335;412;332;13,0;8,0 ; 13,5 ; 7,5;0,0;0,39459459459459456;5,0;-0,6054054054054054
0:00:16.044287;317;296;358;292;13,0;7,0 ; 13,5 ; 7,5;-1,0;-1,602150537634409;6,0;-0,602150537634409
0:00:16.098318;312;290;353;287;13,5;7,0 ; 13,5 ; 7,5;-0,5;-0,5989304812834222;7,0;-0,5989304812834222
0:00:16.194637;346;269;389;265;14,0;7,0 ; 13,5 ; 7,5;-1,0;-0,5957446808510642;6,0;0,40425531914893575
0:00:16.245715;355;255;401;251;14,5;7,5 ; 14,0 ; 8,0;-0,5;-0,5952380952380949;6,5;0,4047619047619051
